{
  "graph": {
    "metainfo" : {
      "id" : "functions",
      "memory" : 1,
      "processors" : 1,
      "cluster": "local",
      "mode": "batch"
    },
    "inports"  : {},
    "outports" : {},
    "groups"   : [],
    "processes": {
      "n1": {
        "component": "FileInput",
        "metadata": {
          "x": 100,
          "y": 100,
          "label": "artists"
        },
        "properties": {
          "fileType": "csv",
          "header": "true",
          "inferSchema": "true",
          "fileName": "s3://S3_BUCKET/examples/data/artists.csv",
          "interim": true
        },
        "ports": {
          "inputs": [],
          "outputs": [
            "out"
          ]
        }
      },
      "n2": {
        "component": "ApplyFunctions",
        "metadata": {
          "x": 100,
          "y": 100,
          "label": "string functions"
        },
        "properties": {
          "functions" : [
            {
              "addReplaceColumn": "upper_name",
              "functionName": "upper",
              "inputColumns" : ["name"],
              "inputLiterals" : [],
              "comment": "Create a new column with upper case name",
              "id": 1
            },
            {
              "addReplaceColumn": "lower_name",
              "functionName": "lower",
              "inputColumns" : ["name"],
              "inputLiterals" : [],
              "comment": "Create a new column with lower case name",
              "id": 2
            },
            {
              "addReplaceColumn": "name",
              "functionName": "initcap",
              "inputColumns" : ["name"],
              "inputLiterals" : [],
              "comment": "Change name to title case",
              "id": 3
            },
            {
              "addReplaceColumn": "name",
              "functionName": "ltrim",
              "inputColumns" : ["name"],
              "inputLiterals" : [],
              "comment": "Trim spaces in name from left",
              "id": 4
            },
            {
              "addReplaceColumn": "name",
              "functionName": "rtrim",
              "inputColumns" : ["name"],
              "inputLiterals" : [],
              "comment": "Trim spaces in name from left",
              "id": 5
            },
            {
              "addReplaceColumn": "name",
              "functionName": "trim",
              "inputColumns" : ["name"],
              "inputLiterals" : [],
              "comment": "Trim spaces in name from both",
              "id": 6
            },
            {
              "addReplaceColumn": "encodedDecoded",
              "functionName": "encode",
              "inputColumns" : ["pictureURL"],
              "inputLiterals" : ["UTF-8"],
              "comment": "Create a UTF-8 encoded URL",
              "id": 7
            },
            {
              "addReplaceColumn": "encodedDecoded",
              "functionName": "decode",
              "inputColumns" : ["encodedDecoded"],
              "inputLiterals" : ["UTF-8"],
              "comment": "Decode the UTF-8 encoded URL, we should get back original",
              "id": 8
            },
            {
              "addReplaceColumn": "name_length",
              "functionName": "length",
              "inputColumns" : ["name"],
              "inputLiterals" : [],
              "comment": "Create a new column with length of name",
              "id": 9
            },
            {
              "addReplaceColumn": "name_length",
              "functionName": "format_number",
              "inputColumns" : ["name_length"],
              "inputLiterals" : [2],
              "id": 10
            },
            {
              "addReplaceColumn": "reverse_name",
              "functionName": "reverse",
              "inputColumns" : ["name"],
              "inputLiterals" : [],
              "id": 11
            }
          ],
          "interim": true
        },
        "ports": {
          "inputs": [],
          "outputs": [
            "out"
          ]
        }
      },
      "n3": {
        "component": "FileOutput",
        "metadata": {
          "x": 100,
          "y": 100,
          "label": "write_something"
        },
        "properties": {
          "fileType": "csv",
          "fileName": "s3://S3_BUCKET/examples/results/Functions/out.csv",
          "fileSystem": "s3",
          "credentials": "system"
        },
        "ports": {
          "inputs": [
            "in"
          ],
          "outputs": []
        }
      }
    },
    "connections": [
      {
        "src": {
          "process": "n1",
          "port": "out"
        },
        "tgt": {
          "process": "n2",
          "port": "in"
        },
        "metadata": {
          "route": "e1"
        }
      },
      {
        "src": {
          "process": "n2",
          "port": "out"
        },
        "tgt": {
          "process": "n3",
          "port": "in"
        },
        "metadata": {
          "route": "e2"
        }
      }
    ]
  }
}