{
  "graph": {
    "metainfo" : {
      "id" : "science_newsgroup_classification",
      "memory" : 1,
      "processors" : 1,
      "cluster": "local",
      "mode": "batch"
    },
    "inports"  : {},
    "outports" : {},
    "groups"   : [
      {
        "name": "m1",
        "component" : "MLPipeline",
        "nodes": ["n5", "n6", "n7"],
        "metadata": {
          "description": "Linear Regression based Text Classification pipeline",
          "color": 0
        },
        "properties": {
          "interim": true
        },
        "ports": {
          "inputs": [ ],
          "outputs": ["out"]
        }
      },
      {
        "name": "m2",
        "component" : "MLCrossValidator",
        "nodes": ["n19", "n21", "n20"],
        "metadata": {
          "description": "Cross Validator for text classification",
          "color": 0
        },
        "properties": {
        },
        "ports": {
          "inputs": [],
          "outputs": ["out"]
        }
      }],
    "processes": {
      "n1": {
        "component": "MultiFileInput",
        "metadata": {
          "x": 70,
          "y": 60,
          "label": "Read 20Newsgroups"
        },
        "properties": {
          "fileType": "text",
          "pathName": "/app/dev/data/20news-bydate-test/*",
          "interim": true
        },
        "ports": {
          "inputs": [],
          "outputs": [
            "out"
          ]
        }
      },
      "n2": {
        "component": "ApplyFunctions",
        "metadata": {
          "x": 70,
          "y": 470,
          "label": "pre-process"
        },
        "properties": {
          "functions" : [
            {
              "addReplaceColumn": "fileParts",
              "functionName": "split",
              "inputColumns": ["file"],
              "inputLiterals": ["/"],
              "comment": "Split Components of Filename",
              "id": 1
            },
            {
              "addReplaceColumn": "topic",
              "functionName": "take_last_nth",
              "inputColumns": ["fileParts"],
              "inputLiterals": [2],
              "comment": "Extract Topic",
              "id": 2
            },
            {
              "addReplaceColumn": "id",
              "functionName": "take_last_nth",
              "inputColumns": ["fileParts"],
              "inputLiterals": [1],
              "comment": "Extract Id",
              "id": 3
            },
            {
              "addReplaceColumn": "label",
              "functionName": "column_expression",
              "inputColumns": [],
              "inputLiterals": ["$\"topic\".like(\"sci%\").cast(DoubleType)"],
              "comment": "Classify - science, not science",
              "id": 4
            },
            {
              "addReplaceColumn": "",
              "functionName": "select",
              "inputColumns": ["id", "topic", "text", "label"],
              "inputLiterals": [],
              "comment": "Keep Required Columns",
              "id": 5
            }
          ],
          "interim": true
        },
        "ports": {
          "inputs": ["in"],
          "outputs": [
            "out"
          ]
        }
      },
      "n4":{
        "component":"Split",
        "metadata":{
          "x": 245,
          "y": 470,
          "label":"train test split"
        },
        "properties":{
          "ratio":0.9,
          "seed":37,
          "interim": true
        },
        "ports":{
          "outputs":["one", "two"],
          "inputs":["in"]
        }
      },
      "n5": {
        "component": "Tokenizer",
        "metadata": {
          "x": 375,
          "y": 100,
          "label": "tokenize_text"
        },
        "properties": {
          "inputColumn": "text",
          "outputColumn": "words"
        },
        "ports": {
          "inputs": [
            "in"
          ],
          "outputs": [
            "out"
          ]
        }
      },
      "n6": {
        "component": "HashingTF",
        "metadata": {
          "x": 505,
          "y": 100,
          "label": "token_frequency"
        },
        "properties": {
          "inputColumn": "words",
          "outputColumn": "myFeatures"
        },
        "ports": {
          "inputs": [
            "in"
          ],
          "outputs": [
            "out"
          ]
        }
      },
      "n7": {
        "component": "LogisticRegression",
        "metadata": {
          "x": 635,
          "y": 100,
          "label": "Logistic Regression"
        },
        "properties": {
          "featureColumn": "myFeatures",
          "maxIter": 10
        },
        "ports": {
          "inputs": [
            "in"
          ],
          "outputs": [
            "out"
          ]
        }
      },
      "n19": {
        "component": "BinaryClassificationEvaluator",
        "metadata": {
          "x": 100,
          "y": 100,
          "label": "binary_classifier"
        },
        "properties": {
        },
        "ports": {
          "inputs": [],
          "outputs": ["out"]
        }
      },
      "n21": {
        "component": "ParamGridBuilder",
        "metadata": {
          "x": 100,
          "y": 100,
          "label": "param_grid_builder"
        },
        "properties": {
          "parameterMap": [
            {
              "node":"n6",
              "props": {
                "numFeatures": [1000, 64000]
              }
            },
            {
              "node":"n7",
              "props": {
                "regParam": [0.001, 0.01]
              }
            }
          ]
        },
        "ports": {
          "inputs": [],
          "outputs": ["out"]
        }
      },
      "n20": {
        "component": "CrossValidator",
        "metadata": {
          "x": 100,
          "y": 100,
          "label": "cross_validator"
        },
        "properties": {
          "folds": 2
        },
        "ports": {
          "inputs": ["pipeline", "evaluator", "params"],
          "outputs": ["out"]
        }
      },
      "n18": {
        "component": "ModelSaver",
        "metadata": {
          "x": 635,
          "y": 100,
          "label": "Save Model"
        },
        "properties": {
          "fileName": "s3://S3_BUCKET/examples/results/newsgroup/theCVModel"
        },
        "ports": {
          "inputs": [
            "in"
          ],
          "outputs": [
            "out"
          ]
        }
      },
      "n9": {
        "component": "ModelApplier",
        "metadata": {
          "x": 765,
          "y": 470,
          "label": "Apply Model"
        },
        "properties": {
          "interim": true
        },
        "ports": {
          "inputs": [
            "model",
            "data"
          ],
          "outputs": [
            "out"
          ]
        }
      },
      "n11": {
        "component": "BinaryClassificationEvaluator",
        "metadata": {
          "x": 940,
          "y": 470,
          "label": "quality on test"
        },
        "properties": {
          "metricName" : "areaUnderROC",
          "interim" : true
        },
        "ports": {
          "inputs": ["in"],
          "outputs": ["out"]
        }
      },
      "n12":{
        "component":"Filter",
        "metadata":{
          "x": 940,
          "y": 60,
          "label":"false positives"
        },
        "properties":{
          "condition": "label = 0.0 and prediction = 1.0",
          "interim": true
        },
        "ports":{
          "outputs":["out"],
          "inputs":["in"]
        }
      },
      "n13": {
        "component": "Select",
        "metadata": {
          "x": 1070,
          "y": 60,
          "label": "output fields"
        },
        "properties": {
          "columns": ["id", "topic", "text"],
          "interim": true
        },
        "ports": {
          "inputs": [
            "in"
          ],
          "outputs": [
            "out"
          ]
        }
      },
      "n14": {
        "component": "FileOutput",
        "metadata": {
          "x": 1200,
          "y": 60,
          "label": "write false positives"
        },
        "properties": {
          "fileType": "csv",
          "fileName": "s3://S3_BUCKET/examples/results/newsgroup/false_positives.csv",
          "fileSystem": "s3",
          "credentials": "system"
        },
        "ports": {
          "inputs": [
            "in"
          ],
          "outputs": []
        }
      },
      "n15": {
        "component": "FileOutput",
        "metadata": {
          "x": 1070,
          "y": 470,
          "label": "write model accuracy"
        },
        "properties": {
          "fileType": "txt",
          "fileName": "examples/results/newsgroup/area_under_ROC.txt",
          "fileSystem": "s3",
          "credentials": "system"
        },
        "ports": {
          "inputs": [
            "in"
          ],
          "outputs": []
        }
      },
      "n16": {
        "component": "Script",
        "metadata": {
          "x": 940,
          "y": 265,
          "label": "topic to label"
        },
        "properties": {
          "package": "datasci",
          "language": "scala",
          "name": "classifyPredictions",
          "imports": ["org.apache.spark.sql.DataFrame", "org.apache.spark.sql._"],
          "definitions": "",
          "body": "  in.select(\\n    when((in(\"label\") === 0.0 && in(\"prediction\") === 1.0), \"False Positives\").\\n    when((in(\"label\") === 1.0 && in(\"prediction\") === 0.0), \"False Negatives\").\\n    when((in(\"label\") === 1.0 && in(\"prediction\") === 1.0), \"Correct Science\").\\n    when((in(\"label\") === 0.0 && in(\"prediction\") === 0.0), \"Correct Not Science\")\\n    as \"Prediction\").groupBy(\"Prediction\").count()",
          "interim": true
        },
        "ports": {
          "inputs": ["in"],
          "outputs": [
            "out"
          ]
        }
      },
      "n17": {
        "component": "Visualize",
        "metadata": {
          "x": 1070,
          "y": 265,
          "label": "Predictions"
        },
        "properties": {
          "xColumn": "Prediction",
          "yColumn": "count",
          "chartType": "BarChart"
        },
        "ports": {
          "inputs": [
            "in"
          ],
          "outputs": []
        }
      }
    },
    "connections": [
      {
        "src": {
          "process": "n1",
          "port": "out"
        },
        "tgt": {
          "process": "n2",
          "port": "in"
        },
        "metadata": {
          "route": "e1"
        }
      },
      {
        "src": {
          "process": "n2",
          "port": "out"
        },
        "tgt": {
          "process": "n4",
          "port": "in"
        },
        "metadata": {
          "route": "e2"
        }
      },
      {
        "src": {
          "process": "n4",
          "port": "one"
        },
        "tgt": {
          "process": "n5",
          "port": "in"
        },
        "metadata": {
          "route": "e4"
        }
      },
      {
        "src": {
          "process": "n5",
          "port": "out"
        },
        "tgt": {
          "process": "n6",
          "port": "in"
        },
        "metadata": {
          "route": "e5"
        }
      },
      {
        "src": {
          "process": "n6",
          "port": "out"
        },
        "tgt": {
          "process": "n7",
          "port": "in"
        },
        "metadata": {
          "route": "e6"
        }
      },
      {
        "src": {
          "process": "n20",
          "port": "out"
        },
        "tgt": {
          "process": "n9",
          "port": "model"
        },
        "metadata": {
          "route": "e8"
        }
      },
      {
        "src": {
          "process": "n7",
          "port": "out"
        },
        "tgt": {
          "process": "n21",
          "port": "model"
        },
        "metadata": {
          "route": "e20"
        }
      },
      {
        "src": {
          "process": "n7",
          "port": "out"
        },
        "tgt": {
          "process": "n20",
          "port": "pipeline"
        },
        "metadata": {
          "route": "e21"
        }
      },
      {
        "src": {
          "process": "n20",
          "port": "out"
        },
        "tgt": {
          "process": "n18",
          "port": "model"
        },
        "metadata": {
          "route": "e19"
        }
      },
      {
        "src": {
          "process": "n4",
          "port": "two"
        },
        "tgt": {
          "process": "n9",
          "port": "data"
        },
        "metadata": {
          "route": "e10"
        }
      },
      {
        "src": {
          "process": "n9",
          "port": "out"
        },
        "tgt": {
          "process": "n11",
          "port": "in"
        },
        "metadata": {
          "route": "e12"
        }
      },
      {
        "src": {
          "process": "n9",
          "port": "out"
        },
        "tgt": {
          "process": "n12",
          "port": "in"
        },
        "metadata": {
          "route": "e13"
        }
      },
      {
        "src": {
          "process": "n12",
          "port": "out"
        },
        "tgt": {
          "process": "n13",
          "port": "in"
        },
        "metadata": {
          "route": "e14"
        }
      },
      {
        "src": {
          "process": "n13",
          "port": "out"
        },
        "tgt": {
          "process": "n14",
          "port": "in"
        },
        "metadata": {
          "route": "e15"
        }
      },
      {
        "src": {
          "process": "n11",
          "port": "out"
        },
        "tgt": {
          "process": "n15",
          "port": "in"
        },
        "metadata": {
          "route": "e16"
        }
      },
      {
        "src": {
          "process": "n9",
          "port": "out"
        },
        "tgt": {
          "process": "n16",
          "port": "in"
        },
        "metadata": {
          "route": "e17"
        }
      },
      {
        "src": {
          "process": "n16",
          "port": "out"
        },
        "tgt": {
          "process": "n17",
          "port": "in"
        },
        "metadata": {
          "route": "e18"
        }
      },
      {
        "src": {
          "process": "n19",
          "port": "out"
        },
        "tgt": {
          "process": "n20",
          "port": "evaluator"
        },
        "metadata": {
          "route": "e23"
        }
      },
      {
        "src": {
          "process": "n21",
          "port": "out"
        },
        "tgt": {
          "process": "n20",
          "port": "params"
        },
        "metadata": {
          "route": "e22"
        }
      }
    ]
  }
}
