{"SimpleTextClassificationPipeline":
{
  "n3_out":{
    "schema":{
      
    },
    "stats":{
      
    },
    "histogram":{
      
    },
    "nulls":{
      
    },
    "data":{
      
    }
  },
  "n7_out":{
    "schema":{
      "id":"LongType",
      "text":"StringType",
      "words":"ArrayType(StringType,true)",
      "myFeatures":"org.apache.spark.mllib.linalg.VectorUDT@f71b0bce",
      "rawPrediction":"org.apache.spark.mllib.linalg.VectorUDT@f71b0bce",
      "probability":"org.apache.spark.mllib.linalg.VectorUDT@f71b0bce",
      "prediction":"DoubleType"
    },
    "stats":{
      "count":{
        "summary":"count",
        "id":"4",
        "prediction":"4"
      },
      "mean":{
        "summary":"mean",
        "id":"5.5",
        "prediction":"0.5"
      },
      "stddev":{
        "summary":"stddev",
        "id":"1.2909944487358056",
        "prediction":"0.5773502691896257"
      },
      "min":{
        "summary":"min",
        "id":"4",
        "prediction":"0.0"
      },
      "max":{
        "summary":"max",
        "id":"7",
        "prediction":"1.0"
      }
    },
    "histogram":{
      "id":[{
        "min":4.0,
        "max":4.3,
        "count":1
      },{
        "min":4.3,
        "max":4.6,
        "count":0
      },{
        "min":4.6,
        "max":4.9,
        "count":0
      },{
        "min":4.9,
        "max":5.2,
        "count":1
      },{
        "min":5.2,
        "max":5.5,
        "count":0
      },{
        "min":5.5,
        "max":5.8,
        "count":0
      },{
        "min":5.8,
        "max":6.1,
        "count":1
      },{
        "min":6.1,
        "max":6.4,
        "count":0
      },{
        "min":6.4,
        "max":6.699999999999999,
        "count":0
      },{
        "min":6.699999999999999,
        "max":7.0,
        "count":1
      }],
      "prediction":[{
        "min":0.0,
        "max":0.1,
        "count":2
      },{
        "min":0.1,
        "max":0.2,
        "count":0
      },{
        "min":0.2,
        "max":0.30000000000000004,
        "count":0
      },{
        "min":0.30000000000000004,
        "max":0.4,
        "count":0
      },{
        "min":0.4,
        "max":0.5,
        "count":0
      },{
        "min":0.5,
        "max":0.6000000000000001,
        "count":0
      },{
        "min":0.6000000000000001,
        "max":0.7000000000000001,
        "count":0
      },{
        "min":0.7000000000000001,
        "max":0.8,
        "count":0
      },{
        "min":0.8,
        "max":0.9,
        "count":0
      },{
        "min":0.9,
        "max":1.0,
        "count":2
      }]
    },
    "nulls":{
      "id":0,
      "text":0,
      "words":0,
      "myFeatures":0,
      "rawPrediction":0,
      "probability":0,
      "prediction":0
    },
    "data":{
      "Row1":["4","spark i j k","WrappedArray(spark"," i"," j"," k)","(1000","[105","106","107","365]","[1.0","1.0","1.0","1.0])","[-1.6609033227473273","1.6609033227473273]","[0.15964077387874118","0.8403592261212589]","1.0"],
      "Row2":["5","l m n","WrappedArray(l"," m"," n)","(1000","[108","109","110]","[1.0","1.0","1.0])","[1.6421889526563511","-1.6421889526563511]","[0.8378325685476612","0.16216743145233875]","0.0"],
      "Row3":["6","spark hadoop spark","WrappedArray(spark"," hadoop"," spark)","(1000","[269","365]","[1.0","2.0])","[-2.5980142174392924","2.5980142174392924]","[0.06926633132976273","0.9307336686702373]","1.0"],
      "Row4":["7","apache hadoop","WrappedArray(apache"," hadoop)","(1000","[269","894]","[1.0","1.0])","[4.0081703333680645","-4.0081703333680645]","[0.9821575333444208","0.01784246665557917]","0.0"]
    }
  },
  "n4_out":{
    "schema":{
      
    },
    "stats":{
      
    },
    "histogram":{
      
    },
    "nulls":{
      
    },
    "data":{
      
    }
  },
  "n8_out":{
    "schema":{
      "id":"LongType",
      "text":"StringType",
      "probability":"org.apache.spark.mllib.linalg.VectorUDT@f71b0bce",
      "prediction":"DoubleType"
    },
    "stats":{
      "count":{
        "summary":"count",
        "id":"4",
        "prediction":"4"
      },
      "mean":{
        "summary":"mean",
        "id":"5.5",
        "prediction":"0.5"
      },
      "stddev":{
        "summary":"stddev",
        "id":"1.2909944487358056",
        "prediction":"0.5773502691896257"
      },
      "min":{
        "summary":"min",
        "id":"4",
        "prediction":"0.0"
      },
      "max":{
        "summary":"max",
        "id":"7",
        "prediction":"1.0"
      }
    },
    "histogram":{
      "id":[{
        "min":4.0,
        "max":4.3,
        "count":1
      },{
        "min":4.3,
        "max":4.6,
        "count":0
      },{
        "min":4.6,
        "max":4.9,
        "count":0
      },{
        "min":4.9,
        "max":5.2,
        "count":1
      },{
        "min":5.2,
        "max":5.5,
        "count":0
      },{
        "min":5.5,
        "max":5.8,
        "count":0
      },{
        "min":5.8,
        "max":6.1,
        "count":1
      },{
        "min":6.1,
        "max":6.4,
        "count":0
      },{
        "min":6.4,
        "max":6.699999999999999,
        "count":0
      },{
        "min":6.699999999999999,
        "max":7.0,
        "count":1
      }],
      "prediction":[{
        "min":0.0,
        "max":0.1,
        "count":2
      },{
        "min":0.1,
        "max":0.2,
        "count":0
      },{
        "min":0.2,
        "max":0.30000000000000004,
        "count":0
      },{
        "min":0.30000000000000004,
        "max":0.4,
        "count":0
      },{
        "min":0.4,
        "max":0.5,
        "count":0
      },{
        "min":0.5,
        "max":0.6000000000000001,
        "count":0
      },{
        "min":0.6000000000000001,
        "max":0.7000000000000001,
        "count":0
      },{
        "min":0.7000000000000001,
        "max":0.8,
        "count":0
      },{
        "min":0.8,
        "max":0.9,
        "count":0
      },{
        "min":0.9,
        "max":1.0,
        "count":2
      }]
    },
    "nulls":{
      "id":0,
      "text":0,
      "probability":0,
      "prediction":0
    },
    "data":{
      "Row1":["4","spark i j k","[0.15964077387874118","0.8403592261212589]","1.0"],
      "Row2":["5","l m n","[0.8378325685476612","0.16216743145233875]","0.0"],
      "Row3":["6","spark hadoop spark","[0.06926633132976273","0.9307336686702373]","1.0"],
      "Row4":["7","apache hadoop","[0.9821575333444208","0.01784246665557917]","0.0"]
    }
  },
  "n1_out":{
    "schema":{
      "id":"LongType",
      "text":"StringType",
      "label":"DoubleType"
    },
    "stats":{
      "count":{
        "summary":"count",
        "id":"4",
        "label":"4"
      },
      "mean":{
        "summary":"mean",
        "id":"1.5",
        "label":"0.5"
      },
      "stddev":{
        "summary":"stddev",
        "id":"1.2909944487358056",
        "label":"0.5773502691896257"
      },
      "min":{
        "summary":"min",
        "id":"0",
        "label":"0.0"
      },
      "max":{
        "summary":"max",
        "id":"3",
        "label":"1.0"
      }
    },
    "histogram":{
      "id":[{
        "min":0.0,
        "max":0.3,
        "count":1
      },{
        "min":0.3,
        "max":0.6,
        "count":0
      },{
        "min":0.6,
        "max":0.8999999999999999,
        "count":0
      },{
        "min":0.8999999999999999,
        "max":1.2,
        "count":1
      },{
        "min":1.2,
        "max":1.5,
        "count":0
      },{
        "min":1.5,
        "max":1.7999999999999998,
        "count":0
      },{
        "min":1.7999999999999998,
        "max":2.1,
        "count":1
      },{
        "min":2.1,
        "max":2.4,
        "count":0
      },{
        "min":2.4,
        "max":2.6999999999999997,
        "count":0
      },{
        "min":2.6999999999999997,
        "max":3.0,
        "count":1
      }],
      "label":[{
        "min":0.0,
        "max":0.1,
        "count":2
      },{
        "min":0.1,
        "max":0.2,
        "count":0
      },{
        "min":0.2,
        "max":0.30000000000000004,
        "count":0
      },{
        "min":0.30000000000000004,
        "max":0.4,
        "count":0
      },{
        "min":0.4,
        "max":0.5,
        "count":0
      },{
        "min":0.5,
        "max":0.6000000000000001,
        "count":0
      },{
        "min":0.6000000000000001,
        "max":0.7000000000000001,
        "count":0
      },{
        "min":0.7000000000000001,
        "max":0.8,
        "count":0
      },{
        "min":0.8,
        "max":0.9,
        "count":0
      },{
        "min":0.9,
        "max":1.0,
        "count":2
      }]
    },
    "nulls":{
      "id":0,
      "text":0,
      "label":0
    },
    "data":{
      "Row1":["0","a b c d e spark","1.0"],
      "Row2":["1","b d","0.0"],
      "Row3":["2","spark f g h","1.0"],
      "Row4":["3","hadoop mapreduce","0.0"]
    }
  },
  "n2_out":{
    "schema":{
      "id":"LongType",
      "text":"StringType"
    },
    "stats":{
      "count":{
        "summary":"count",
        "id":"4"
      },
      "mean":{
        "summary":"mean",
        "id":"5.5"
      },
      "stddev":{
        "summary":"stddev",
        "id":"1.2909944487358056"
      },
      "min":{
        "summary":"min",
        "id":"4"
      },
      "max":{
        "summary":"max",
        "id":"7"
      }
    },
    "histogram":{
      "id":[{
        "min":4.0,
        "max":4.3,
        "count":1
      },{
        "min":4.3,
        "max":4.6,
        "count":0
      },{
        "min":4.6,
        "max":4.9,
        "count":0
      },{
        "min":4.9,
        "max":5.2,
        "count":1
      },{
        "min":5.2,
        "max":5.5,
        "count":0
      },{
        "min":5.5,
        "max":5.8,
        "count":0
      },{
        "min":5.8,
        "max":6.1,
        "count":1
      },{
        "min":6.1,
        "max":6.4,
        "count":0
      },{
        "min":6.4,
        "max":6.699999999999999,
        "count":0
      },{
        "min":6.699999999999999,
        "max":7.0,
        "count":1
      }]
    },
    "nulls":{
      "id":0,
      "text":0
    },
    "data":{
      "Row1":["4","spark i j k"],
      "Row2":["5","l m n"],
      "Row3":["6","spark hadoop spark"],
      "Row4":["7","apache hadoop"]
    }
  },
  "n5_dummy_out":{
    "schema":{
      
    },
    "stats":{
      
    },
    "histogram":{
      
    },
    "nulls":{
      
    },
    "data":{
      
    }
  }
}
}