{
  "graph": {
    "metainfo" : {
      "id" : "newsgroup_classification",
      "memory" : 1,
      "processors" : 1,
      "cluster": "local",
      "mode": "batch"
    },
    "inports"  : {},
    "outports" : {},
    "groups"   : [
      {
      "name": "m1",
      "component" : "MLPipeline",
      "nodes": ["n5", "n6", "n7"],
      "metadata": {
        "description": "Linear Regression based Text Classification pipeline",
        "color": 0
      },
      "properties": {
        "interim": true
      },
      "ports": {
        "inputs": [ ],
        "outputs": ["out"]
      }
    }],
    "processes": {
      "n1": {
        "component": "MultiFileInput",
        "metadata": {
          "x": 100,
          "y": 100,
          "label": "Read 20Newsgroups"
        },
        "properties": {
          "fileType": "text",
          "pathName": "/vagrant/tmp/resources/20news-bydate/20news-bydate-test/*",
          "interim": true
        },
        "ports": {
          "inputs": [],
          "outputs": [
            "out"
          ]
        }
      },
      "n2": {
        "component": "ApplyFunctions",
        "metadata": {
          "x": 100,
          "y": 100,
          "label": "pre-process"
        },
        "properties": {
          "functions" : [
            {
              "addReplaceColumn": "fileParts",
              "functionName": "split",
              "inputColumns": ["file"],
              "inputLiterals": ["/"],
              "comment": "Split Components of Filename"
            },
            {
              "addReplaceColumn": "topic",
              "functionName": "takeLastNth",
              "inputColumns": ["fileParts"],
              "inputLiterals": [2],
              "comment": "Extract Topic"
            },
            {
              "addReplaceColumn": "id",
              "functionName": "takeLastNth",
              "inputColumns": ["fileParts"],
              "inputLiterals": [1],
              "comment": "Extract Id"
            },
            {
              "addReplaceColumn": "NA",
              "functionName": "select",
              "inputColumns": ["id", "topic", "text"],
              "inputLiterals": [],
              "comment": "Keep Required Columns"
            }
          ],
          "interim": true
        },
        "ports": {
          "inputs": ["in"],
          "outputs": [
            "out"
          ]
        }
      },
      "n3": {
        "component": "Script",
        "metadata": {
          "x": 100,
          "y": 100,
          "label": "topic to label"
        },
        "properties": {
          "package": "datasci",
          "language": "scala",
          "name": "applyLabel",
          "imports": ["org.apache.spark.sql.DataFrame", "org.apache.spark.sql._"],
          "definitions": "case class LabeledDocument(id: Long, text: String, label: Double)",
          "body": "  val topic2Label: Boolean => Double = isSci => if (isSci) 1 else 0\\n  val toLabel = udf(topic2Label)\\n  in.withColumn(\"label\", toLabel($\"topic\".like(\"sci%\")))",
          "interim": true
        },
        "ports": {
          "inputs": ["in"],
          "outputs": [
            "out"
          ]
        }
      },
      "n4":{
        "component":"Split",
        "metadata":{
          "y":"100",
          "x":"100",
          "label":"train test split"
        },
        "properties":{
          "ratio":0.9,
          "seed":37,
          "interim": true
        },
        "ports":{
          "outputs":["one", "two"],
          "inputs":["in"]
        }
      },
      "n5": {
        "component": "Tokenizer",
        "metadata": {
          "x": 100,
          "y": 100,
          "label": "tokenize_text"
        },
        "properties": {
          "inputColumn": "text",
          "outputColumn": "words"
        },
        "ports": {
          "inputs": [
            "in"
          ],
          "outputs": [
            "out"
          ]
        }
      },
      "n6": {
        "component": "HashingTF",
        "metadata": {
          "x": 100,
          "y": 100,
          "label": "token_frequency"
        },
        "properties": {
          "inputColumn": "words",
          "outputColumn": "myFeatures",
          "numFeatures": 64000
        },
        "ports": {
          "inputs": [
            "in"
          ],
          "outputs": [
            "out"
          ]
        }
      },
      "n7": {
        "component": "LogisticRegression",
        "metadata": {
          "x": 100,
          "y": 100,
          "label": "Logistic Regression"
        },
        "properties": {
          "featureColumn": "myFeatures",
          "maxIter": 10,
          "regParam": 0.001
        },
        "ports": {
          "inputs": [
            "in"
          ],
          "outputs": [
            "out"
          ]
        }
      },
      "n8": {
        "component": "ModelApplier",
        "metadata": {
          "x": 100,
          "y": 100,
          "label": "Apply Model"
        },
        "properties": {
          "interim": true
        },
        "ports": {
          "inputs": [
            "model",
            "data"
          ],
          "outputs": [
            "out"
          ]
        }
      },
      "n9": {
        "component": "ModelApplier",
        "metadata": {
          "x": 100,
          "y": 100,
          "label": "Apply Model"
        },
        "properties": {
          "interim": true
        },
        "ports": {
          "inputs": [
            "model",
            "data"
          ],
          "outputs": [
            "out"
          ]
        }
      },
      "n10": {
        "component": "BinaryClassificationEvaluator",
        "metadata": {
          "x": 100,
          "y": 100,
          "label": "quality on train"
        },
        "properties": {
          "metricName" : "areaUnderROC",
          "interim" : true
        },
        "ports": {
          "inputs": ["in"],
          "outputs": ["out"]
        }
      },
      "n11": {
        "component": "BinaryClassificationEvaluator",
        "metadata": {
          "x": 100,
          "y": 100,
          "label": "quality on test"
        },
        "properties": {
          "metricName" : "areaUnderROC",
          "interim" : true
        },
        "ports": {
          "inputs": ["in"],
          "outputs": ["out"]
        }
      },
      "n12":{
        "component":"Filter",
        "metadata":{
          "y":"100",
          "x":"100",
          "label":"false positives"
        },
        "properties":{
          "condition": "label = 0.0 and prediction = 1.0",
          "interim": true
        },
        "ports":{
          "outputs":["out"],
          "inputs":["in"]
        }
      },
      "n13": {
        "component": "Select",
        "metadata": {
          "x": 100,
          "y": 100,
          "label": "output fields"
        },
        "properties": {
          "columns": ["id", "topic", "text"]
        },
        "ports": {
          "inputs": [
            "in"
          ],
          "outputs": [
            "out"
          ]
        }
      },
      "n14": {
        "component": "FileOutput",
        "metadata": {
          "x": 100,
          "y": 100,
          "label": "write bad matches"
        },
        "properties": {
          "fileType": "csv",
          "fileName": "/vagrant/tmp/resources/newsgroup_false_positives.csv"
        },
        "ports": {
          "inputs": [
            "in"
          ],
          "outputs": []
        }
      }
    },
    "connections": [
      {
        "src": {
          "process": "n1",
          "port": "out"
        },
        "tgt": {
          "process": "n2",
          "port": "in"
        },
        "metadata": {
          "route": "e1"
        }
      },
      {
        "src": {
          "process": "n2",
          "port": "out"
        },
        "tgt": {
          "process": "n3",
          "port": "in"
        },
        "metadata": {
          "route": "e2"
        }
      },
      {
        "src": {
          "process": "n3",
          "port": "out"
        },
        "tgt": {
          "process": "n4",
          "port": "in"
        },
        "metadata": {
          "route": "e3"
        }
      },
      {
        "src": {
          "process": "n4",
          "port": "one"
        },
        "tgt": {
          "process": "n5",
          "port": "in"
        },
        "metadata": {
          "route": "e4"
        }
      },
      {
        "src": {
          "process": "n5",
          "port": "out"
        },
        "tgt": {
          "process": "n6",
          "port": "in"
        },
        "metadata": {
          "route": "e5"
        }
      },
      {
        "src": {
          "process": "n6",
          "port": "out"
        },
        "tgt": {
          "process": "n7",
          "port": "in"
        },
        "metadata": {
          "route": "e6"
        }
      },
      {
        "src": {
          "process": "n7",
          "port": "out"
        },
        "tgt": {
          "process": "n8",
          "port": "model"
        },
        "metadata": {
          "route": "e7"
        }
      },
      {
        "src": {
          "process": "n7",
          "port": "out"
        },
        "tgt": {
          "process": "n9",
          "port": "model"
        },
        "metadata": {
          "route": "e8"
        }
      },
      {
        "src": {
          "process": "n4",
          "port": "one"
        },
        "tgt": {
          "process": "n8",
          "port": "data"
        },
        "metadata": {
          "route": "e9"
        }
      },
      {
        "src": {
          "process": "n4",
          "port": "two"
        },
        "tgt": {
          "process": "n9",
          "port": "data"
        },
        "metadata": {
          "route": "e10"
        }
      },
      {
        "src": {
          "process": "n8",
          "port": "out"
        },
        "tgt": {
          "process": "n10",
          "port": "in"
        },
        "metadata": {
          "route": "e11"
        }
      },
      {
        "src": {
          "process": "n9",
          "port": "out"
        },
        "tgt": {
          "process": "n11",
          "port": "in"
        },
        "metadata": {
          "route": "e12"
        }
      },
      {
        "src": {
          "process": "n9",
          "port": "out"
        },
        "tgt": {
          "process": "n12",
          "port": "in"
        },
        "metadata": {
          "route": "e13"
        }
      },
      {
        "src": {
          "process": "n12",
          "port": "out"
        },
        "tgt": {
          "process": "n13",
          "port": "in"
        },
        "metadata": {
          "route": "e14"
        }
      },
      {
        "src": {
          "process": "n13",
          "port": "out"
        },
        "tgt": {
          "process": "n14",
          "port": "in"
        },
        "metadata": {
          "route": "e15"
        }
      }
    ]
  }
}
