{
  "graph": {
    "metainfo" : {
      "id" : "a_simple_graph",
      "memory" : 1,
      "processors" : 1,
      "cluster": "local",
      "mode": "batch"
    },
    "inports"  : {},
    "outports" : {},
    "groups"   : [],
    "processes": {
      "n1": {
        "component": "FileInput",
        "metadata": {
          "x": 100,
          "y": 100,
          "label": "artists"
        },
        "properties": {
          "fileType": "csv",
          "header": "true",
          "inferSchema": "true",
          "fileName": "/vagrant/tmp/resources/artists.csv",
          "interim": true,
          "import": true,
          "location": "/vagrant/tmp/resources/imports/artists"
        },
        "ports": {
          "inputs": [],
          "outputs": [
            "out"
          ]
        }
      },
      "n2": {
        "component": "FileInput",
        "metadata": {
          "x": 100,
          "y": 100,
          "label": "user_artists"
        },
        "properties": {
          "fileType": "csv",
          "header": "true",
          "inferSchema": "true",
          "fileName": "/vagrant/tmp/resources/user_artists.csv",
          "interim": true,
          "import": true,
          "location": "/vagrant/tmp/resources/imports/user_artists"
        },
        "ports": {
          "inputs": [],
          "outputs": [
            "out"
          ]
        }
      },
      "n4": {
        "component": "FileOutput",
        "metadata": {
          "x": 100,
          "y": 100,
          "label": "write_user_artists"
        },
        "properties": {
          "fileType": "csv",
          "fileName": "/vagrant/tmp/resources/write_user_artists.csv"
        },
        "ports": {
          "inputs": [
            "in"
          ],
          "outputs": []
        }
      },
      "n3": {
        "component": "Join",
        "metadata": {
          "x": 100,
          "y": 100,
          "label": "joined_user_artists"
        },
        "properties": {
          "joinType": "outer",
          "joinCondition": "n2(\"artistID\") === n1(\"id\")",
          "interim": true
        },
        "ports": {
          "inputs": [
            "left",
            "right"
          ],
          "outputs": [
            "out"
          ]
        }
      },
      "n5":{
        "component":"Filter",
        "metadata":{
          "y":"100",
          "x":"100",
          "label":"smaller_artists"
        },
        "properties":{
          "comment":"Filter using boolean expression on one or more columns",
          "condition":"id < 100"
        },
        "ports":{
          "outputs":["out"],
          "inputs":["in"]
        }
      },
      "n6":{
        "component":"Except",
        "metadata":{
          "y":"100",
          "x":"100",
          "label":"bigger_artists"
        },
        "properties":{
          "comment":"Rows in one that are not present in two"
        },
        "ports":{
          "outputs":["out"],
          "inputs":["one", "two"]
        }
      },
      "n7":{
        "component":"UnionAll",
        "metadata":{
          "y":"100",
          "x":"100",
          "label":"all_combined_artists"
        },
        "properties":{
          "comment":"Combine both inputs, duplicates are kept"
        },
        "ports":{
          "outputs":["out"],
          "inputs":["one", "two"]
        }
      },
      "n8":{
        "component":"Limit",
        "metadata":{
          "y":"100",
          "x":"100",
          "label":"top20"
        },
        "properties":{
          "comment":"Only keep Limit number of rows",
          "limit":20
        },
        "ports":{
          "outputs":["out"],
          "inputs":["in"]
        }
      },
      "n9":{
        "component":"Split",
        "metadata":{
          "y":"100",
          "x":"100",
          "label":"splitter"
        },
        "properties":{
          "comment":"Only keep Limit number of rows",
          "ratio":0.4,
          "seed":37
        },
        "ports":{
          "outputs":["one", "two"],
          "inputs":["in"]
        }
      },
      "n10":{
        "component":"OrderBy",
        "metadata":{
          "y":"100",
          "x":"100",
          "label":"sorter"
        },
        "properties":{
          "comment":"Sort rows by given columns/expressions",
          "columns":["weight"]
        },
        "ports":{
          "outputs":["out"],
          "inputs":["in"]
        }
      },
      "n11": {
        "component": "FileOutput",
        "metadata": {
          "x": 100,
          "y": 100,
          "label": "write_something"
        },
        "properties": {
          "fileType": "csv",
          "fileName": "/vagrant/tmp/resources/one.csv"
        },
        "ports": {
          "inputs": [
            "in"
          ],
          "outputs": []
        }
      }
    },
    "connections": [
      {
        "src": {
          "process": "n2",
          "port": "out"
        },
        "tgt": {
          "process": "n3",
          "port": "left"
        },
        "metadata": {
          "route": "e1"
        }
      },
      {
        "src": {
          "process": "n1",
          "port": "out"
        },
        "tgt": {
          "process": "n3",
          "port": "right"
        },
        "metadata": {
          "route": "e2"
        }
      },
      {
        "src": {
          "process": "n3",
          "port": "out"
        },
        "tgt": {
          "process": "n5",
          "port": "in"
        },
        "metadata": {
          "route": "e3"
        }
      },
      {
        "src": {
          "process": "n5",
          "port": "out"
        },
        "tgt": {
          "process": "n6",
          "port": "two"
        },
        "metadata": {
          "route": "e4"
        }
      },
      {
        "src": {
          "process": "n3",
          "port": "out"
        },
        "tgt": {
          "process": "n6",
          "port": "one"
        },
        "metadata": {
          "route": "e5"
        }
      },
      {
        "src": {
          "process": "n5",
          "port": "out"
        },
        "tgt": {
          "process": "n7",
          "port": "one"
        },
        "metadata": {
          "route": "e6"
        }
      },
      {
        "src": {
          "process": "n6",
          "port": "out"
        },
        "tgt": {
          "process": "n7",
          "port": "two"
        },
        "metadata": {
          "route": "e7"
        }
      },
      {
        "src": {
          "process": "n7",
          "port": "out"
        },
        "tgt": {
          "process": "n8",
          "port": "in"
        },
        "metadata": {
          "route": "e8"
        }
      },
      {
        "src": {
          "process": "n9",
          "port": "one"
        },
        "tgt": {
          "process": "n4",
          "port": "in"
        },
        "metadata": {
          "route": "e9"
        }
      },
      {
        "src": {
          "process": "n9",
          "port": "two"
        },
        "tgt": {
          "process": "n10",
          "port": "in"
        },
        "metadata": {
          "route": "e11"
        }
      },
      {
        "src": {
          "process": "n10",
          "port": "out"
        },
        "tgt": {
          "process": "n11",
          "port": "in"
        },
        "metadata": {
          "route": "e12"
        }
      },
      {
        "src": {
          "process": "n8",
          "port": "out"
        },
        "tgt": {
          "process": "n9",
          "port": "in"
        },
        "metadata": {
          "route": "e10"
        }
      }
    ]
  }
}
